%YAML 1.1
%TAG !u! tag:unity3d.com,2011:
--- !u!319 &31900000
AvatarMask:
  m_ObjectHideFlags: 0
  m_PrefabParentObject: {fileID: 0}
  m_PrefabInternal: {fileID: 0}
  m_Name: Legs
  m_Mask: 01000000010000000100000001000000010000000100000001000000010000000100000001000000010000000100000001000000
  m_Elements:
  - m_Path: 
    m_Weight: 1
  - m_Path: Akai
    m_Weight: 1
  - m_Path: Hips
    m_Weight: 1
  - m_Path: Hips/LeftUpLeg
    m_Weight: 1
  - m_Path: Hips/LeftUpLeg/LeftLeg
    m_Weight: 1
  - m_Path: Hips/LeftUpLeg/LeftLeg/LeftFoot
    m_Weight: 1
  - m_Path: Hips/LeftUpLeg/LeftLeg/LeftFoot/LeftToeBase
    m_Weight: 1
  - m_Path: Hips/LeftUpLeg/LeftLeg/LeftFoot/LeftToeBase/LeftToe_End
    m_Weight: 1
  - m_Path: Hips/RightUpLeg
    m_Weight: 1
  - m_Path: Hips/RightUpLeg/RightLeg
    m_Weight: 1
  - m_Path: Hips/RightUpLeg/RightLeg/RightFoot
    m_Weight: 1
  - m_Path: Hips/RightUpLeg/RightLeg/RightFoot/RightToeBase
    m_Weight: 1
  - m_Path: Hips/RightUpLeg/RightLeg/RightFoot/RightToeBase/RightToe_End
    m_Weight: 1
  - m_Path: Hips/Spine
    m_Weight: 0
  - m_Path: Hips/Spine/Spine1
    m_Weight: 0
  - m_Path: Hips/Spine/Spine1/Spine2
    m_Weight: 0
  - m_Path: Hips/Spine/Spine1/Spine2/LeftShoulder
    m_Weight: 0
  - m_Path: Hips/Spine/Spine1/Spine2/LeftShoulder/LeftArm
    m_Weight: 0
  - m_Path: Hips/Spine/Spine1/Spine2/LeftShoulder/LeftArm/LeftForeArm
    m_Weight: 0
  - m_Path: Hips/Spine/Spine1/Spine2/LeftShoulder/LeftArm/LeftForeArm/LeftHand
    m_Weight: 0
  - m_Path: Hips/Spine/Spine1/Spine2/LeftShoulder/LeftArm/LeftForeArm/LeftHand/LeftHandIndex1
    m_Weight: 0
  - m_Path: Hips/Spine/Spine1/Spine2/LeftShoulder/LeftArm/LeftForeArm/LeftHand/LeftHandIndex1/LeftHandIndex2
    m_Weight: 0
  - m_Path: Hips/Spine/Spine1/Spine2/LeftShoulder/LeftArm/LeftForeArm/LeftHand/LeftHandIndex1/LeftHandIndex2/LeftHandIndex3
    m_Weight: 0
  - m_Path: Hips/Spine/Spine1/Spine2/LeftShoulder/LeftArm/LeftForeArm/LeftHand/LeftHandIndex1/LeftHandIndex2/LeftHandIndex3/LeftHandIndex4
    m_Weight: 0
  - m_Path: Hips/Spine/Spine1/Spine2/LeftShoulder/LeftArm/LeftForeArm/LeftHand/LeftHandMiddle1
    m_Weight: 0
  - m_Path: Hips/Spine/Spine1/Spine2/LeftShoulder/LeftArm/LeftForeArm/LeftHand/LeftHandMiddle1/LeftHandMiddle2
    m_Weight: 0
  - m_Path: Hips/Spine/Spine1/Spine2/LeftShoulder/LeftArm/LeftForeArm/LeftHand/LeftHandMiddle1/LeftHandMiddle2/LeftHandMiddle3
    m_Weight: 0
  - m_Path: Hips/Spine/Spine1/Spine2/LeftShoulder/LeftArm/LeftForeArm/LeftHand/LeftHandMiddle1/LeftHandMiddle2/LeftHandMiddle3/LeftHandMiddle4
    m_Weight: 0
  - m_Path: Hips/Spine/Spine1/Spine2/LeftShoulder/LeftArm/LeftForeArm/LeftHand/LeftHandPinky1
    m_Weight: 0
  - m_Path: Hips/Spine/Spine1/Spine2/LeftShoulder/LeftArm/LeftForeArm/LeftHand/LeftHandPinky1/LeftHandPinky2
    m_Weight: 0
  - m_Path: Hips/Spine/Spine1/Spine2/LeftShoulder/LeftArm/LeftForeArm/LeftHand/LeftHandPinky1/LeftHandPinky2/LeftHandPinky3
    m_Weight: 0
  - m_Path: Hips/Spine/Spine1/Spine2/LeftShoulder/LeftArm/LeftForeArm/LeftHand/LeftHandPinky1/LeftHandPinky2/LeftHandPinky3/LeftHandPinky4
    m_Weight: 0
  - m_Path: Hips/Spine/Spine1/Spine2/LeftShoulder/LeftArm/LeftForeArm/LeftHand/LeftHandRing1
    m_Weight: 0
  - m_Path: Hips/Spine/Spine1/Spine2/LeftShoulder/LeftArm/LeftForeArm/LeftHand/LeftHandRing1/LeftHandRing2
    m_Weight: 0
  - m_Path: Hips/Spine/Spine1/Spine2/LeftShoulder/LeftArm/LeftForeArm/LeftHand/LeftHandRing1/LeftHandRing2/LeftHandRing3
    m_Weight: 0
  - m_Path: Hips/Spine/Spine1/Spine2/LeftShoulder/LeftArm/LeftForeArm/LeftHand/LeftHandRing1/LeftHandRing2/LeftHandRing3/LeftHandRing4
    m_Weight: 0
  - m_Path: Hips/Spine/Spine1/Spine2/LeftShoulder/LeftArm/LeftForeArm/LeftHand/LeftHandThumb1
    m_Weight: 0
  - m_Path: Hips/Spine/Spine1/Spine2/LeftShoulder/LeftArm/LeftForeArm/LeftHand/LeftHandThumb1/LeftHandThumb2
    m_Weight: 0
  - m_Path: Hips/Spine/Spine1/Spine2/LeftShoulder/LeftArm/LeftForeArm/LeftHand/LeftHandThumb1/LeftHandThumb2/LeftHandThumb3
    m_Weight: 0
  - m_Path: Hips/Spine/Spine1/Spine2/LeftShoulder/LeftArm/LeftForeArm/LeftHand/LeftHandThumb1/LeftHandThumb2/LeftHandThumb3/LeftHandThumb4
    m_Weight: 0
  - m_Path: Hips/Spine/Spine1/Spine2/Neck
    m_Weight: 1
  - m_Path: Hips/Spine/Spine1/Spine2/Neck/Head
    m_Weight: 1
  - m_Path: Hips/Spine/Spine1/Spine2/Neck/Head/HeadTop_End
    m_Weight: 1
  - m_Path: Hips/Spine/Spine1/Spine2/RightShoulder
    m_Weight: 0
  - m_Path: Hips/Spine/Spine1/Spine2/RightShoulder/RightArm
    m_Weight: 0
  - m_Path: Hips/Spine/Spine1/Spine2/RightShoulder/RightArm/RightForeArm
    m_Weight: 0
  - m_Path: Hips/Spine/Spine1/Spine2/RightShoulder/RightArm/RightForeArm/RightHand
    m_Weight: 0
  - m_Path: Hips/Spine/Spine1/Spine2/RightShoulder/RightArm/RightForeArm/RightHand/RightHandIndex1
    m_Weight: 0
  - m_Path: Hips/Spine/Spine1/Spine2/RightShoulder/RightArm/RightForeArm/RightHand/RightHandIndex1/RightHandIndex2
    m_Weight: 0
  - m_Path: Hips/Spine/Spine1/Spine2/RightShoulder/RightArm/RightForeArm/RightHand/RightHandIndex1/RightHandIndex2/RightHandIndex3
    m_Weight: 0
  - m_Path: Hips/Spine/Spine1/Spine2/RightShoulder/RightArm/RightForeArm/RightHand/RightHandIndex1/RightHandIndex2/RightHandIndex3/RightHandIndex4
    m_Weight: 0
  - m_Path: Hips/Spine/Spine1/Spine2/RightShoulder/RightArm/RightForeArm/RightHand/RightHandMiddle1
    m_Weight: 0
  - m_Path: Hips/Spine/Spine1/Spine2/RightShoulder/RightArm/RightForeArm/RightHand/RightHandMiddle1/RightHandMiddle2
    m_Weight: 0
  - m_Path: Hips/Spine/Spine1/Spine2/RightShoulder/RightArm/RightForeArm/RightHand/RightHandMiddle1/RightHandMiddle2/RightHandMiddle3
    m_Weight: 0
  - m_Path: Hips/Spine/Spine1/Spine2/RightShoulder/RightArm/RightForeArm/RightHand/RightHandMiddle1/RightHandMiddle2/RightHandMiddle3/RightHandMiddle4
    m_Weight: 0
  - m_Path: Hips/Spine/Spine1/Spine2/RightShoulder/RightArm/RightForeArm/RightHand/RightHandPinky1
    m_Weight: 0
  - m_Path: Hips/Spine/Spine1/Spine2/RightShoulder/RightArm/RightForeArm/RightHand/RightHandPinky1/RightHandPinky2
    m_Weight: 0
  - m_Path: Hips/Spine/Spine1/Spine2/RightShoulder/RightArm/RightForeArm/RightHand/RightHandPinky1/RightHandPinky2/RightHandPinky3
    m_Weight: 0
  - m_Path: Hips/Spine/Spine1/Spine2/RightShoulder/RightArm/RightForeArm/RightHand/RightHandPinky1/RightHandPinky2/RightHandPinky3/RightHandPinky4
    m_Weight: 0
  - m_Path: Hips/Spine/Spine1/Spine2/RightShoulder/RightArm/RightForeArm/RightHand/RightHandRing1
    m_Weight: 0
  - m_Path: Hips/Spine/Spine1/Spine2/RightShoulder/RightArm/RightForeArm/RightHand/RightHandRing1/RightHandRing2
    m_Weight: 0
  - m_Path: Hips/Spine/Spine1/Spine2/RightShoulder/RightArm/RightForeArm/RightHand/RightHandRing1/RightHandRing2/RightHandRing3
    m_Weight: 0
  - m_Path: Hips/Spine/Spine1/Spine2/RightShoulder/RightArm/RightForeArm/RightHand/RightHandRing1/RightHandRing2/RightHandRing3/RightHandRing4
    m_Weight: 0
  - m_Path: Hips/Spine/Spine1/Spine2/RightShoulder/RightArm/RightForeArm/RightHand/RightHandThumb1
    m_Weight: 0
  - m_Path: Hips/Spine/Spine1/Spine2/RightShoulder/RightArm/RightForeArm/RightHand/RightHandThumb1/RightHandThumb2
    m_Weight: 0
  - m_Path: Hips/Spine/Spine1/Spine2/RightShoulder/RightArm/RightForeArm/RightHand/RightHandThumb1/RightHandThumb2/RightHandThumb3
    m_Weight: 0
  - m_Path: Hips/Spine/Spine1/Spine2/RightShoulder/RightArm/RightForeArm/RightHand/RightHandThumb1/RightHandThumb2/RightHandThumb3/RightHandThumb4
    m_Weight: 0
